MeasuringTools/wsim.vcd
$date
  March 13, 2017	20:32:53
$end

$version 0.8svn $end

$timescale 1ns $end

$scope module msp430 $end
    $var integer 1 aaaa adc12_state $end
    $var integer 1 aaab intr_gie $end
    $var integer 8 aaac intr_num $end
    $var integer 32 aaad clk_mclk $end
    $var integer 32 aaae clk_smclk $end
    $var integer 32 aaaf clk_aclk $end
    $var integer 8 aaag LPM $end
    $var integer 8 aaah breakpoint $end
    $var integer 8 aaai port_out1 $end
    $var integer 8 aaaj port_out2 $end
    $var integer 8 aaak port_out3 $end
    $var integer 8 aaal port_out4 $end
    $var integer 8 aaam port_out5 $end
    $var integer 8 aaan port_out6 $end
    $var integer 8 aaao Usart0 $end
    $var integer 8 aaap Usart1 $end
$upscope $end

$scope module led $end
    $var integer 1 aaaq red $end
    $var integer 1 aaar green $end
    $var integer 1 aaas blue $end
$upscope $end

$scope module cc2420 $end
    $var integer 8 aaat cc2420_state $end
    $var integer 8 aaau cc2420_strobe $end
    $var integer 1 aaav cc2420_cs $end
    $var integer 1 aaaw cc2420_fifop $end
    $var integer 1 aaax cc2420_fifo $end
    $var integer 1 aaay cc2420_cca $end
    $var integer 1 aaba cc2420_sfd $end
    $var integer 1 aabb cc2420_vreg_en $end
    $var integer 1 aabc cc2420_reset $end
$upscope $end


$enddefinitions $end

$comment
  worldsens-tracer 0.8svn
$end

$dumpvars
b0000000000000000000000000000000000000000000000000000000000000000 aaaa
b0000000000000000000000000000000000000000000000000000000000000000 aaab
b0000000000000000000000000000000000000000000000000000000000000000 aaac
b0000000000000000000000000000000000000000000000000000000000000000 aaad
b0000000000000000000000000000000000000000000000000000000000000000 aaae
b0000000000000000000000000000000000000000000000000000000000000000 aaaf
b0000000000000000000000000000000000000000000000000000000000000000 aaag
b0000000000000000000000000000000000000000000000000000000000000000 aaah
b0000000000000000000000000000000000000000000000000000000000000000 aaai
b0000000000000000000000000000000000000000000000000000000000000000 aaaj
b0000000000000000000000000000000000000000000000000000000000000000 aaak
b0000000000000000000000000000000000000000000000000000000000000000 aaal
b0000000000000000000000000000000000000000000000000000000000000000 aaam
b0000000000000000000000000000000000000000000000000000000000000000 aaan
b0000000000000000000000000000000000000000000000000000000000000000 aaao
b0000000000000000000000000000000000000000000000000000000000000000 aaap
b0000000000000000000000000000000000000000000000000000000000000000 aaaq
b0000000000000000000000000000000000000000000000000000000000000000 aaar
b0000000000000000000000000000000000000000000000000000000000000000 aaas
b0000000000000000000000000000000000000000000000000000000000000000 aaat
b0000000000000000000000000000000000000000000000000000000000000000 aaau
b0000000000000000000000000000000000000000000000000000000000000000 aaav
b0000000000000000000000000000000000000000000000000000000000000000 aaaw
b0000000000000000000000000000000000000000000000000000000000000000 aaax
b0000000000000000000000000000000000000000000000000000000000000000 aaay
b0000000000000000000000000000000000000000000000000000000000000000 aaba
b0000000000000000000000000000000000000000000000000000000000000000 aabb
b0000000000000000000000000000000000000000000000000000000000000000 aabc
$end




#0
b0000000000000000000000000000000000000000000000000000000000000000 aaaa
b0000000000000000000000000000000000000000000000001000000000000000 aaaf
b0000000000000000000000000000000000000000000010110111000110110000 aaad
b0000000000000000000000000000000000000000000010110111000110110000 aaae
b0000000000000000000000000000000000000000000000000000000001100100 aaat

#1221150
b0000000000000000000000000000000000000000000000000000000001110000 aaam

#1513125
b0000000000000000000000000000000000000000000000000000000000000001 aaab

#2170393
b0000000000000000000000000000000000000000000000000000000000000110 aaac

#2333039
b0000000000000000000000000000000000000000000000000000000001010000 aaam

#2338372
b0000000000000000000000000000000000000000000000000000000000000001 aaar

#2490347
b0000000000000000000000000000000000000000000000000000000000000000 aaac

#3143615
b0000000000000000000000000000000000000000000000000000000000000110 aaac

#3394242
b0000000000000000000000000000000000000000000000000000000000000000 aaac

#4120836
b0000000000000000000000000000000000000000000000000000000000000110 aaac

#4371463
b0000000000000000000000000000000000000000000000000000000000000000 aaac

#5098057
b0000000000000000000000000000000000000000000000000000000000000110 aaac

#5348684
b0000000000000000000000000000000000000000000000000000000000000000 aaac

#6075278
b0000000000000000000000000000000000000000000000000000000000000110 aaac

#6325905
b0000000000000000000000000000000000000000000000000000000000000000 aaac

#7052499
b0000000000000000000000000000000000000000000000000000000000000110 aaac

#7303126
b0000000000000000000000000000000000000000000000000000000000000000 aaac

#8025720
b0000000000000000000000000000000000000000000000000000000000000110 aaac

#8276347
b0000000000000000000000000000000000000000000000000000000000000000 aaac

#9002941
b0000000000000000000000000000000000000000000000000000000000000110 aaac

#9253568
b0000000000000000000000000000000000000000000000000000000000000000 aaac

#9980162
b0000000000000000000000000000000000000000000000000000000000000110 aaac

#10230789
b0000000000000000000000000000000000000000000000000000000000000000 aaac

#10954717
b0000000000000000000000000000000000000000000000000000000000000110 aaac

#11205344
b0000000000000000000000000000000000000000000000000000000000000000 aaac

#11931938
b0000000000000000000000000000000000000000000000000000000000000110 aaac

#12182565
b0000000000000000000000000000000000000000000000000000000000000000 aaac

#12909159
b0000000000000000000000000000000000000000000000000000000000000110 aaac

#13159786
b0000000000000000000000000000000000000000000000000000000000000000 aaac

#13886380
b0000000000000000000000000000000000000000000000000000000000000110 aaac

#14137007
b0000000000000000000000000000000000000000000000000000000000000000 aaac

#14863601
b0000000000000000000000000000000000000000000000000000000000000110 aaac

#15114228
b0000000000000000000000000000000000000000000000000000000000000000 aaac

#15836822
b0000000000000000000000000000000000000000000000000000000000000110 aaac

#16087449
b0000000000000000000000000000000000000000000000000000000000000000 aaac

#16814043
b0000000000000000000000000000000000000000000000000000000000000110 aaac

#17064670
b0000000000000000000000000000000000000000000000000000000000000000 aaac

#17791264
b0000000000000000000000000000000000000000000000000000000000000110 aaac

#18041891
b0000000000000000000000000000000000000000000000000000000000000000 aaac

#18768485
b0000000000000000000000000000000000000000000000000000000000000110 aaac

#19019112
b0000000000000000000000000000000000000000000000000000000000000000 aaac

#19743040
b0000000000000000000000000000000000000000000000000000000000000110 aaac

#19993667
b0000000000000000000000000000000000000000000000000000000000000000 aaac

#20720261
b0000000000000000000000000000000000000000000000000000000000000110 aaac

#20970888
b0000000000000000000000000000000000000000000000000000000000000000 aaac

#21697482
b0000000000000000000000000000000000000000000000000000000000000110 aaac

#21948109
b0000000000000000000000000000000000000000000000000000000000000000 aaac

#22674703
b0000000000000000000000000000000000000000000000000000000000000110 aaac

#22925330
b0000000000000000000000000000000000000000000000000000000000000000 aaac

#23651924
b0000000000000000000000000000000000000000000000000000000000000110 aaac

#23902551
b0000000000000000000000000000000000000000000000000000000000000000 aaac

#24625145
b0000000000000000000000000000000000000000000000000000000000000110 aaac

#24875772
b0000000000000000000000000000000000000000000000000000000000000000 aaac

#25602366
b0000000000000000000000000000000000000000000000000000000000000110 aaac

#25852993
b0000000000000000000000000000000000000000000000000000000000000000 aaac

#26579587
b0000000000000000000000000000000000000000000000000000000000000110 aaac

#26830214
b0000000000000000000000000000000000000000000000000000000000000000 aaac

#27556808
b0000000000000000000000000000000000000000000000000000000000000110 aaac

#27807435
b0000000000000000000000000000000000000000000000000000000000000000 aaac

#28531363
b0000000000000000000000000000000000000000000000000000000000000110 aaac

#28781990
b0000000000000000000000000000000000000000000000000000000000000000 aaac

#29508584
b0000000000000000000000000000000000000000000000000000000000000110 aaac

#29759211
b0000000000000000000000000000000000000000000000000000000000000000 aaac

#30485805
b0000000000000000000000000000000000000000000000000000000000000110 aaac

#30736432
b0000000000000000000000000000000000000000000000000000000000000000 aaac

#31463026
b0000000000000000000000000000000000000000000000000000000000000110 aaac

#31713653
b0000000000000000000000000000000000000000000000000000000000000000 aaac

#32440247
b0000000000000000000000000000000000000000000000000000000000000110 aaac

#32690874
b0000000000000000000000000000000000000000000000000000000000000000 aaac

#33413468
b0000000000000000000000000000000000000000000000000000000000000110 aaac

#33664095
b0000000000000000000000000000000000000000000000000000000000000000 aaac

#34390689
b0000000000000000000000000000000000000000000000000000000000000110 aaac

#34641316
b0000000000000000000000000000000000000000000000000000000000000000 aaac

#35367910
b0000000000000000000000000000000000000000000000000000000000000110 aaac

#35618537
b0000000000000000000000000000000000000000000000000000000000000000 aaac

#36342465
b0000000000000000000000000000000000000000000000000000000000000110 aaac

#36593092
b0000000000000000000000000000000000000000000000000000000000000000 aaac

#37319686
b0000000000000000000000000000000000000000000000000000000000000110 aaac

#37570313
b0000000000000000000000000000000000000000000000000000000000000000 aaac

#38296907
b0000000000000000000000000000000000000000000000000000000000000110 aaac

#38547534
b0000000000000000000000000000000000000000000000000000000000000000 aaac

#39274128
b0000000000000000000000000000000000000000000000000000000000000110 aaac

#39524755
b0000000000000000000000000000000000000000000000000000000000000000 aaac

#40251349
b0000000000000000000000000000000000000000000000000000000000000110 aaac

#40501976
b0000000000000000000000000000000000000000000000000000000000000000 aaac

#41224570
b0000000000000000000000000000000000000000000000000000000000000110 aaac

#41475197
b0000000000000000000000000000000000000000000000000000000000000000 aaac

#42201791
b0000000000000000000000000000000000000000000000000000000000000110 aaac

#42452418
b0000000000000000000000000000000000000000000000000000000000000000 aaac

#43179012
b0000000000000000000000000000000000000000000000000000000000000110 aaac

#43429639
b0000000000000000000000000000000000000000000000000000000000000000 aaac

#44156233
b0000000000000000000000000000000000000000000000000000000000000110 aaac

#44406860
b0000000000000000000000000000000000000000000000000000000000000000 aaac

#45130788
b0000000000000000000000000000000000000000000000000000000000000110 aaac

#45381415
b0000000000000000000000000000000000000000000000000000000000000000 aaac

#46108009
b0000000000000000000000000000000000000000000000000000000000000110 aaac

#46358636
b0000000000000000000000000000000000000000000000000000000000000000 aaac

#47085230
b0000000000000000000000000000000000000000000000000000000000000110 aaac

#47335857
b0000000000000000000000000000000000000000000000000000000000000000 aaac

#48062451
b0000000000000000000000000000000000000000000000000000000000000110 aaac

#48313078
b0000000000000000000000000000000000000000000000000000000000000000 aaac

#49039672
b0000000000000000000000000000000000000000000000000000000000000110 aaac

#49290299
b0000000000000000000000000000000000000000000000000000000000000000 aaac

#50012893
b0000000000000000000000000000000000000000000000000000000000000110 aaac

#50263520
b0000000000000000000000000000000000000000000000000000000000000000 aaac

#50990114
b0000000000000000000000000000000000000000000000000000000000000110 aaac

#51240741
b0000000000000000000000000000000000000000000000000000000000000000 aaac

#51967335
b0000000000000000000000000000000000000000000000000000000000000110 aaac

#52217962
b0000000000000000000000000000000000000000000000000000000000000000 aaac

#52941890
b0000000000000000000000000000000000000000000000000000000000000110 aaac

#53192517
b0000000000000000000000000000000000000000000000000000000000000000 aaac

#53919111
b0000000000000000000000000000000000000000000000000000000000000110 aaac

#54169738
b0000000000000000000000000000000000000000000000000000000000000000 aaac

#54896332
b0000000000000000000000000000000000000000000000000000000000000110 aaac

#55146959
b0000000000000000000000000000000000000000000000000000000000000000 aaac

#55873553
b0000000000000000000000000000000000000000000000000000000000000110 aaac

#56124180
b0000000000000000000000000000000000000000000000000000000000000000 aaac

#56850774
b0000000000000000000000000000000000000000000000000000000000000110 aaac

#57101401
b0000000000000000000000000000000000000000000000000000000000000000 aaac

#57827995
b0000000000000000000000000000000000000000000000000000000000000110 aaac

#58078622
b0000000000000000000000000000000000000000000000000000000000000000 aaac

#58801216
b0000000000000000000000000000000000000000000000000000000000000110 aaac

#59051843
b0000000000000000000000000000000000000000000000000000000000000000 aaac

#59778437
b0000000000000000000000000000000000000000000000000000000000000110 aaac

#60029064
b0000000000000000000000000000000000000000000000000000000000000000 aaac

#60755658
b0000000000000000000000000000000000000000000000000000000000000110 aaac

#61006285
b0000000000000000000000000000000000000000000000000000000000000000 aaac

#61730213
b0000000000000000000000000000000000000000000000000000000000000110 aaac

#61980840
b0000000000000000000000000000000000000000000000000000000000000000 aaac

#62707434
b0000000000000000000000000000000000000000000000000000000000000110 aaac

#62958061
b0000000000000000000000000000000000000000000000000000000000000000 aaac

#63684655
b0000000000000000000000000000000000000000000000000000000000000110 aaac

#63935282
b0000000000000000000000000000000000000000000000000000000000000000 aaac

#64661876
b0000000000000000000000000000000000000000000000000000000000000110 aaac

#64912503
b0000000000000000000000000000000000000000000000000000000000000000 aaac

#65639097
b0000000000000000000000000000000000000000000000000000000000000110 aaac

#65889724
b0000000000000000000000000000000000000000000000000000000000000000 aaac

#66612318
b0000000000000000000000000000000000000000000000000000000000000110 aaac

#66862945
b0000000000000000000000000000000000000000000000000000000000000000 aaac

#67589539
b0000000000000000000000000000000000000000000000000000000000000110 aaac

#67840166
b0000000000000000000000000000000000000000000000000000000000000000 aaac

#68566760
b0000000000000000000000000000000000000000000000000000000000000110 aaac

#68817387
b0000000000000000000000000000000000000000000000000000000000000000 aaac

#69543981
b0000000000000000000000000000000000000000000000000000000000000110 aaac

#69794608
b0000000000000000000000000000000000000000000000000000000000000000 aaac

#70518536
b0000000000000000000000000000000000000000000000000000000000000110 aaac

#70769163
b0000000000000000000000000000000000000000000000000000000000000000 aaac

#71495757
b0000000000000000000000000000000000000000000000000000000000000110 aaac

#71746384
b0000000000000000000000000000000000000000000000000000000000000000 aaac

#72472978
b0000000000000000000000000000000000000000000000000000000000000110 aaac

#72723605
b0000000000000000000000000000000000000000000000000000000000000000 aaac

#73450199
b0000000000000000000000000000000000000000000000000000000000000110 aaac

#73700826
b0000000000000000000000000000000000000000000000000000000000000000 aaac

#74427420
b0000000000000000000000000000000000000000000000000000000000000110 aaac

#74678047
b0000000000000000000000000000000000000000000000000000000000000000 aaac

#75400641
b0000000000000000000000000000000000000000000000000000000000000110 aaac

#75651268
b0000000000000000000000000000000000000000000000000000000000000000 aaac

#76377862
b0000000000000000000000000000000000000000000000000000000000000110 aaac

#76628489
b0000000000000000000000000000000000000000000000000000000000000000 aaac

#77355083
b0000000000000000000000000000000000000000000000000000000000000110 aaac

#77605710
b0000000000000000000000000000000000000000000000000000000000000000 aaac

#78329638
b0000000000000000000000000000000000000000000000000000000000000110 aaac

#78580265
b0000000000000000000000000000000000000000000000000000000000000000 aaac

#79306859
b0000000000000000000000000000000000000000000000000000000000000110 aaac

#79557486
b0000000000000000000000000000000000000000000000000000000000000000 aaac

#80284080
b0000000000000000000000000000000000000000000000000000000000000110 aaac

#80534707
b0000000000000000000000000000000000000000000000000000000000000000 aaac

#81261301
b0000000000000000000000000000000000000000000000000000000000000110 aaac

#81511928
b0000000000000000000000000000000000000000000000000000000000000000 aaac

#82238522
b0000000000000000000000000000000000000000000000000000000000000110 aaac

#82489149
b0000000000000000000000000000000000000000000000000000000000000000 aaac

#83215743
b0000000000000000000000000000000000000000000000000000000000000110 aaac

#83466370
b0000000000000000000000000000000000000000000000000000000000000000 aaac

#84188964
b0000000000000000000000000000000000000000000000000000000000000110 aaac

#84439591
b0000000000000000000000000000000000000000000000000000000000000000 aaac

#85166185
b0000000000000000000000000000000000000000000000000000000000000110 aaac

#85416812
b0000000000000000000000000000000000000000000000000000000000000000 aaac

#86143406
b0000000000000000000000000000000000000000000000000000000000000110 aaac

#86394033
b0000000000000000000000000000000000000000000000000000000000000000 aaac

#87117961
b0000000000000000000000000000000000000000000000000000000000000110 aaac

#87368588
b0000000000000000000000000000000000000000000000000000000000000000 aaac

#88095182
b0000000000000000000000000000000000000000000000000000000000000110 aaac

#88345809
b0000000000000000000000000000000000000000000000000000000000000000 aaac

#89072403
b0000000000000000000000000000000000000000000000000000000000000110 aaac

#89323030
b0000000000000000000000000000000000000000000000000000000000000000 aaac

#90049624
b0000000000000000000000000000000000000000000000000000000000000110 aaac

#90300251
b0000000000000000000000000000000000000000000000000000000000000000 aaac

#91026845
b0000000000000000000000000000000000000000000000000000000000000110 aaac

#91277472
b0000000000000000000000000000000000000000000000000000000000000000 aaac

#92000066
b0000000000000000000000000000000000000000000000000000000000000110 aaac

#92250693
b0000000000000000000000000000000000000000000000000000000000000000 aaac

#92977287
b0000000000000000000000000000000000000000000000000000000000000110 aaac

#93227914
b0000000000000000000000000000000000000000000000000000000000000000 aaac

#93954508
b0000000000000000000000000000000000000000000000000000000000000110 aaac

#94205135
b0000000000000000000000000000000000000000000000000000000000000000 aaac

#94931729
b0000000000000000000000000000000000000000000000000000000000000110 aaac

#95182356
b0000000000000000000000000000000000000000000000000000000000000000 aaac

#95906284
b0000000000000000000000000000000000000000000000000000000000000110 aaac

#96156911
b0000000000000000000000000000000000000000000000000000000000000000 aaac

#96883505
b0000000000000000000000000000000000000000000000000000000000000110 aaac

#97134132
b0000000000000000000000000000000000000000000000000000000000000000 aaac

#97860726
b0000000000000000000000000000000000000000000000000000000000000110 aaac

#98111353
b0000000000000000000000000000000000000000000000000000000000000000 aaac

#98837947
b0000000000000000000000000000000000000000000000000000000000000110 aaac

#99088574
b0000000000000000000000000000000000000000000000000000000000000000 aaac

#99815168
b0000000000000000000000000000000000000000000000000000000000000110 aaac

#100065795
b0000000000000000000000000000000000000000000000000000000000000000 aaac

#100788389
b0000000000000000000000000000000000000000000000000000000000000110 aaac

#101039016
b0000000000000000000000000000000000000000000000000000000000000000 aaac

#101765610
b0000000000000000000000000000000000000000000000000000000000000110 aaac

#102016237
b0000000000000000000000000000000000000000000000000000000000000000 aaac

#102742831
b0000000000000000000000000000000000000000000000000000000000000110 aaac

#102993458
b0000000000000000000000000000000000000000000000000000000000000000 aaac

#103717386
b0000000000000000000000000000000000000000000000000000000000000110 aaac

#103968013
b0000000000000000000000000000000000000000000000000000000000000000 aaac

#104694607
b0000000000000000000000000000000000000000000000000000000000000110 aaac

#104945234
b0000000000000000000000000000000000000000000000000000000000000000 aaac

#105671828
b0000000000000000000000000000000000000000000000000000000000000110 aaac

#105922455
b0000000000000000000000000000000000000000000000000000000000000000 aaac

#106649049
b0000000000000000000000000000000000000000000000000000000000000110 aaac

#106899676
b0000000000000000000000000000000000000000000000000000000000000000 aaac

#107626270
b0000000000000000000000000000000000000000000000000000000000000110 aaac

#107876897
b0000000000000000000000000000000000000000000000000000000000000000 aaac

#108603491
b0000000000000000000000000000000000000000000000000000000000000110 aaac

#108854118
b0000000000000000000000000000000000000000000000000000000000000000 aaac

#109576712
b0000000000000000000000000000000000000000000000000000000000000110 aaac

#109827339
b0000000000000000000000000000000000000000000000000000000000000000 aaac

#110553933
b0000000000000000000000000000000000000000000000000000000000000110 aaac

#110804560
b0000000000000000000000000000000000000000000000000000000000000000 aaac

#111531154
b0000000000000000000000000000000000000000000000000000000000000110 aaac

#111781781
b0000000000000000000000000000000000000000000000000000000000000000 aaac

#112505709
b0000000000000000000000000000000000000000000000000000000000000110 aaac

#112756336
b0000000000000000000000000000000000000000000000000000000000000000 aaac

#113482930
b0000000000000000000000000000000000000000000000000000000000000110 aaac

#113733557
b0000000000000000000000000000000000000000000000000000000000000000 aaac

#114460151
b0000000000000000000000000000000000000000000000000000000000000110 aaac

#114710778
b0000000000000000000000000000000000000000000000000000000000000000 aaac

#115437372
b0000000000000000000000000000000000000000000000000000000000000110 aaac

#115687999
b0000000000000000000000000000000000000000000000000000000000000000 aaac

#116414593
b0000000000000000000000000000000000000000000000000000000000000110 aaac

#116665220
b0000000000000000000000000000000000000000000000000000000000000000 aaac

#117387814
b0000000000000000000000000000000000000000000000000000000000000110 aaac

#117638441
b0000000000000000000000000000000000000000000000000000000000000000 aaac

#118365035
b0000000000000000000000000000000000000000000000000000000000000110 aaac

#118615662
b0000000000000000000000000000000000000000000000000000000000000000 aaac

#119342256
b0000000000000000000000000000000000000000000000000000000000000110 aaac

#119592883
b0000000000000000000000000000000000000000000000000000000000000000 aaac

#120319477
b0000000000000000000000000000000000000000000000000000000000000110 aaac

#120570104
b0000000000000000000000000000000000000000000000000000000000000000 aaac

#121294032
b0000000000000000000000000000000000000000000000000000000000000110 aaac

#121544659
b0000000000000000000000000000000000000000000000000000000000000000 aaac

#122271253
b0000000000000000000000000000000000000000000000000000000000000110 aaac

#122521880
b0000000000000000000000000000000000000000000000000000000000000000 aaac

#123248474
b0000000000000000000000000000000000000000000000000000000000000110 aaac

#123499101
b0000000000000000000000000000000000000000000000000000000000000000 aaac

#124225695
b0000000000000000000000000000000000000000000000000000000000000110 aaac

#124476322
b0000000000000000000000000000000000000000000000000000000000000000 aaac

#125202916
b0000000000000000000000000000000000000000000000000000000000000110 aaac

#125453543
b0000000000000000000000000000000000000000000000000000000000000000 aaac

#126176137
b0000000000000000000000000000000000000000000000000000000000000110 aaac

#126426764
b0000000000000000000000000000000000000000000000000000000000000000 aaac

#127153358
b0000000000000000000000000000000000000000000000000000000000000110 aaac

#127403985
b0000000000000000000000000000000000000000000000000000000000000000 aaac

#128130579
b0000000000000000000000000000000000000000000000000000000000000110 aaac

#128381206
b0000000000000000000000000000000000000000000000000000000000000000 aaac

#129105134
b0000000000000000000000000000000000000000000000000000000000000110 aaac

#129355761
b0000000000000000000000000000000000000000000000000000000000000000 aaac

#130082355
b0000000000000000000000000000000000000000000000000000000000000110 aaac

#130332982
b0000000000000000000000000000000000000000000000000000000000000000 aaac

#131059576
b0000000000000000000000000000000000000000000000000000000000000110 aaac

#131310203
b0000000000000000000000000000000000000000000000000000000000000000 aaac

#132036797
b0000000000000000000000000000000000000000000000000000000000000110 aaac

#132287424
b0000000000000000000000000000000000000000000000000000000000000000 aaac

#133014018
b0000000000000000000000000000000000000000000000000000000000000110 aaac

#133264645
b0000000000000000000000000000000000000000000000000000000000000000 aaac

#133991239
b0000000000000000000000000000000000000000000000000000000000000110 aaac

#134241866
b0000000000000000000000000000000000000000000000000000000000000000 aaac

#134964460
b0000000000000000000000000000000000000000000000000000000000000110 aaac

#135215087
b0000000000000000000000000000000000000000000000000000000000000000 aaac

#135941681
b0000000000000000000000000000000000000000000000000000000000000110 aaac

#136192308
b0000000000000000000000000000000000000000000000000000000000000000 aaac

#136918902
b0000000000000000000000000000000000000000000000000000000000000110 aaac

#137169529
b0000000000000000000000000000000000000000000000000000000000000000 aaac

#137893457
b0000000000000000000000000000000000000000000000000000000000000110 aaac

#138144084
b0000000000000000000000000000000000000000000000000000000000000000 aaac

#138870678
b0000000000000000000000000000000000000000000000000000000000000110 aaac

#139121305
b0000000000000000000000000000000000000000000000000000000000000000 aaac

#139847899
b0000000000000000000000000000000000000000000000000000000000000110 aaac

#140098526
b0000000000000000000000000000000000000000000000000000000000000000 aaac

#140825120
b0000000000000000000000000000000000000000000000000000000000000110 aaac

#141075747
b0000000000000000000000000000000000000000000000000000000000000000 aaac

#141802341
b0000000000000000000000000000000000000000000000000000000000000110 aaac

#142052968
b0000000000000000000000000000000000000000000000000000000000000000 aaac

#142775562
b0000000000000000000000000000000000000000000000000000000000000110 aaac

#143026189
b0000000000000000000000000000000000000000000000000000000000000000 aaac

#143752783
b0000000000000000000000000000000000000000000000000000000000000110 aaac

#144003410
b0000000000000000000000000000000000000000000000000000000000000000 aaac

#144730004
b0000000000000000000000000000000000000000000000000000000000000110 aaac

#144980631
b0000000000000000000000000000000000000000000000000000000000000000 aaac

#145707225
b0000000000000000000000000000000000000000000000000000000000000110 aaac

#145957852
b0000000000000000000000000000000000000000000000000000000000000000 aaac

#146681780
b0000000000000000000000000000000000000000000000000000000000000110 aaac

#146932407
b0000000000000000000000000000000000000000000000000000000000000000 aaac

#147659001
b0000000000000000000000000000000000000000000000000000000000000110 aaac

#147909628
b0000000000000000000000000000000000000000000000000000000000000000 aaac

#148636222
b0000000000000000000000000000000000000000000000000000000000000110 aaac

#148886849
b0000000000000000000000000000000000000000000000000000000000000000 aaac

#149613443
b0000000000000000000000000000000000000000000000000000000000000110 aaac

#149864070
b0000000000000000000000000000000000000000000000000000000000000000 aaac

#150590664
b0000000000000000000000000000000000000000000000000000000000000110 aaac

#150841291
b0000000000000000000000000000000000000000000000000000000000000000 aaac

#151563885
b0000000000000000000000000000000000000000000000000000000000000110 aaac

#151814512
b0000000000000000000000000000000000000000000000000000000000000000 aaac

#152541106
b0000000000000000000000000000000000000000000000000000000000000110 aaac

#152791733
b0000000000000000000000000000000000000000000000000000000000000000 aaac

#153518327
b0000000000000000000000000000000000000000000000000000000000000110 aaac

#153768954
b0000000000000000000000000000000000000000000000000000000000000000 aaac

#154492882
b0000000000000000000000000000000000000000000000000000000000000110 aaac

#154743509
b0000000000000000000000000000000000000000000000000000000000000000 aaac

#155470103
b0000000000000000000000000000000000000000000000000000000000000110 aaac

#155720730
b0000000000000000000000000000000000000000000000000000000000000000 aaac

#156447324
b0000000000000000000000000000000000000000000000000000000000000110 aaac

#156697951
b0000000000000000000000000000000000000000000000000000000000000000 aaac

#157424545
b0000000000000000000000000000000000000000000000000000000000000110 aaac

#157675172
b0000000000000000000000000000000000000000000000000000000000000000 aaac

#158401766
b0000000000000000000000000000000000000000000000000000000000000110 aaac

#158652393
b0000000000000000000000000000000000000000000000000000000000000000 aaac

#159374987
b0000000000000000000000000000000000000000000000000000000000000110 aaac

#159625614
b0000000000000000000000000000000000000000000000000000000000000000 aaac

#160352208
b0000000000000000000000000000000000000000000000000000000000000110 aaac

#160602835
b0000000000000000000000000000000000000000000000000000000000000000 aaac

#161329429
b0000000000000000000000000000000000000000000000000000000000000110 aaac

#161580056
b0000000000000000000000000000000000000000000000000000000000000000 aaac

#162306650
b0000000000000000000000000000000000000000000000000000000000000110 aaac

#162557277
b0000000000000000000000000000000000000000000000000000000000000000 aaac

#163281205
b0000000000000000000000000000000000000000000000000000000000000110 aaac

#163531832
b0000000000000000000000000000000000000000000000000000000000000000 aaac

#164258426
b0000000000000000000000000000000000000000000000000000000000000110 aaac

#164509053
b0000000000000000000000000000000000000000000000000000000000000000 aaac

#165235647
b0000000000000000000000000000000000000000000000000000000000000110 aaac

#165486274
b0000000000000000000000000000000000000000000000000000000000000000 aaac

#166212868
b0000000000000000000000000000000000000000000000000000000000000110 aaac

#166463495
b0000000000000000000000000000000000000000000000000000000000000000 aaac

#167190089
b0000000000000000000000000000000000000000000000000000000000000110 aaac

#167440716
b0000000000000000000000000000000000000000000000000000000000000000 aaac

#168163310
b0000000000000000000000000000000000000000000000000000000000000110 aaac

#168413937
b0000000000000000000000000000000000000000000000000000000000000000 aaac

#169140531
b0000000000000000000000000000000000000000000000000000000000000110 aaac

#169391158
b0000000000000000000000000000000000000000000000000000000000000000 aaac

#170117752
b0000000000000000000000000000000000000000000000000000000000000110 aaac

#170368379
b0000000000000000000000000000000000000000000000000000000000000000 aaac

#171094973
b0000000000000000000000000000000000000000000000000000000000000110 aaac

#171345600
b0000000000000000000000000000000000000000000000000000000000000000 aaac

#172069528
b0000000000000000000000000000000000000000000000000000000000000110 aaac

#172320155
b0000000000000000000000000000000000000000000000000000000000000000 aaac

#173046749
b0000000000000000000000000000000000000000000000000000000000000110 aaac

#173297376
b0000000000000000000000000000000000000000000000000000000000000000 aaac

#174023970
b0000000000000000000000000000000000000000000000000000000000000110 aaac

#174274597
b0000000000000000000000000000000000000000000000000000000000000000 aaac

#175001191
b0000000000000000000000000000000000000000000000000000000000000110 aaac

#175251818
b0000000000000000000000000000000000000000000000000000000000000000 aaac

#175978412
b0000000000000000000000000000000000000000000000000000000000000110 aaac

#176229039
b0000000000000000000000000000000000000000000000000000000000000000 aaac

#176951633
b0000000000000000000000000000000000000000000000000000000000000110 aaac

#177202260
b0000000000000000000000000000000000000000000000000000000000000000 aaac

#177928854
b0000000000000000000000000000000000000000000000000000000000000110 aaac

#178179481
b0000000000000000000000000000000000000000000000000000000000000000 aaac

#178906075
b0000000000000000000000000000000000000000000000000000000000000110 aaac

#179156702
b0000000000000000000000000000000000000000000000000000000000000000 aaac

#179880630
b0000000000000000000000000000000000000000000000000000000000000110 aaac

#180131257
b0000000000000000000000000000000000000000000000000000000000000000 aaac

#180857851
b0000000000000000000000000000000000000000000000000000000000000110 aaac

#181108478
b0000000000000000000000000000000000000000000000000000000000000000 aaac

#181835072
b0000000000000000000000000000000000000000000000000000000000000110 aaac

#182085699
b0000000000000000000000000000000000000000000000000000000000000000 aaac

#182812293
b0000000000000000000000000000000000000000000000000000000000000110 aaac

#183062920
b0000000000000000000000000000000000000000000000000000000000000000 aaac

#183789514
b0000000000000000000000000000000000000000000000000000000000000110 aaac

#184040141
b0000000000000000000000000000000000000000000000000000000000000000 aaac

#184762735
b0000000000000000000000000000000000000000000000000000000000000110 aaac

#185013362
b0000000000000000000000000000000000000000000000000000000000000000 aaac

#185739956
b0000000000000000000000000000000000000000000000000000000000000110 aaac

#185990583
b0000000000000000000000000000000000000000000000000000000000000000 aaac

#186717177
b0000000000000000000000000000000000000000000000000000000000000110 aaac

#186967804
b0000000000000000000000000000000000000000000000000000000000000000 aaac

#187694398
b0000000000000000000000000000000000000000000000000000000000000110 aaac

#187945025
b0000000000000000000000000000000000000000000000000000000000000000 aaac

#188668953
b0000000000000000000000000000000000000000000000000000000000000110 aaac

#188919580
b0000000000000000000000000000000000000000000000000000000000000000 aaac

#189646174
b0000000000000000000000000000000000000000000000000000000000000110 aaac

#189896801
b0000000000000000000000000000000000000000000000000000000000000000 aaac

#190623395
b0000000000000000000000000000000000000000000000000000000000000110 aaac

#190874022
b0000000000000000000000000000000000000000000000000000000000000000 aaac

#191600616
b0000000000000000000000000000000000000000000000000000000000000110 aaac

#191851243
b0000000000000000000000000000000000000000000000000000000000000000 aaac

#192577837
b0000000000000000000000000000000000000000000000000000000000000110 aaac

#192828464
b0000000000000000000000000000000000000000000000000000000000000000 aaac

#193551058
b0000000000000000000000000000000000000000000000000000000000000110 aaac

#193801685
b0000000000000000000000000000000000000000000000000000000000000000 aaac

#194528279
b0000000000000000000000000000000000000000000000000000000000000110 aaac

#194778906
b0000000000000000000000000000000000000000000000000000000000000000 aaac

#195505500
b0000000000000000000000000000000000000000000000000000000000000110 aaac

#195756127
b0000000000000000000000000000000000000000000000000000000000000000 aaac

#196482721
b0000000000000000000000000000000000000000000000000000000000000110 aaac

#196733348
b0000000000000000000000000000000000000000000000000000000000000000 aaac

